%YAML 1.1
%TAG !u! tag:unity3d.com,2011:
--- !u!74 &7400000
AnimationClip:
  m_ObjectHideFlags: 0
  m_PrefabParentObject: {fileID: 0}
  m_PrefabInternal: {fileID: 0}
  m_Name: Reticle_Opening
  serializedVersion: 6
  m_Legacy: 0
  m_Compressed: 0
  m_UseHighQualityCurve: 1
  m_RotationCurves: []
  m_CompressedRotationCurves: []
  m_EulerCurves: []
  m_PositionCurves: []
  m_ScaleCurves: []
  m_FloatCurves: []
  m_PPtrCurves:
  - curve:
    - time: 0
      value: {fileID: 21300000, guid: 838ba7a83e863f249952b0ed2e091430, type: 3}
    - time: 0.033333335
      value: {fileID: 21300000, guid: d586fa21cdc73bf419ec07129512a898, type: 3}
    - time: 0.06666667
      value: {fileID: 21300000, guid: 41c69d2fe2b36d54b92cacf8afba75d6, type: 3}
    - time: 0.1
      value: {fileID: 21300000, guid: 824bf147442cdba45ba90c8facb369f7, type: 3}
    - time: 0.13333334
      value: {fileID: 21300000, guid: 6bde0078d32be9641b50aa2af1492478, type: 3}
    - time: 0.16666667
      value: {fileID: 21300000, guid: 95cc91b805144e14b98b7befff1a672c, type: 3}
    - time: 0.2
      value: {fileID: 21300000, guid: 0664b2caab4878f4dae2b01c75a48357, type: 3}
    - time: 0.23333333
      value: {fileID: 21300000, guid: 9726384358707104a84f936368547ac6, type: 3}
    - time: 0.26666668
      value: {fileID: 21300000, guid: 9931a088b4b27ba418ea05f20da2278f, type: 3}
    - time: 0.3
      value: {fileID: 21300000, guid: 5f4eb1ce8b3f8aa40bc23acab2905387, type: 3}
    - time: 0.33333334
      value: {fileID: 21300000, guid: b26ffb468f746cf4c8350bf728902366, type: 3}
    - time: 0.36666667
      value: {fileID: 21300000, guid: d85984c86eeb0414a8667d4b9f32dc47, type: 3}
    - time: 0.4
      value: {fileID: 21300000, guid: 3143359993721d640b5fd05401ed6764, type: 3}
    - time: 0.43333334
      value: {fileID: 21300000, guid: 25bec02aa0f9bb543b624e4245a5e77c, type: 3}
    - time: 0.46666667
      value: {fileID: 21300000, guid: 673557712aa7a0445a1433874d7bc156, type: 3}
    - time: 0.5
      value: {fileID: 21300000, guid: 3c740d3b1bdd7824fbbc804510f4b084, type: 3}
    - time: 0.53333336
      value: {fileID: 21300000, guid: 460db873101c34f4d9a820d2a464e93a, type: 3}
    - time: 0.56666666
      value: {fileID: 21300000, guid: db69d96fc92327a42a527d65a17688a8, type: 3}
    - time: 0.6
      value: {fileID: 21300000, guid: dab8da8cb8718494f9de73c3baf3acac, type: 3}
    - time: 0.6333333
      value: {fileID: 21300000, guid: 0855e9ecc8e55f843be90fed5a7a10c1, type: 3}
    - time: 0.6666667
      value: {fileID: 21300000, guid: 2a5aa9869eb7f3b4aafa08e6a5268afe, type: 3}
    - time: 0.7
      value: {fileID: 21300000, guid: 4dafb7428090d6044b3daf592f7e2c0f, type: 3}
    - time: 0.73333335
      value: {fileID: 21300000, guid: 5b4cacba7ac867c408640a4a2c01051f, type: 3}
    - time: 0.76666665
      value: {fileID: 21300000, guid: ee21c4a5e13c51b428592d081a19adce, type: 3}
    - time: 0.8
      value: {fileID: 21300000, guid: 86aec2ae102e75b4f85d4d23816f05c6, type: 3}
    - time: 0.8333333
      value: {fileID: 21300000, guid: 4cfc708ed399b044fb52c59c39560a12, type: 3}
    - time: 0.8666667
      value: {fileID: 21300000, guid: 47910be132fc4ad43bc08021b4bfdf04, type: 3}
    - time: 0.9
      value: {fileID: 21300000, guid: 1964f4cbe0165b14695d906ebb472ced, type: 3}
    - time: 0.93333334
      value: {fileID: 21300000, guid: fb0403ac146d5ec45992540e3607c640, type: 3}
    - time: 0.96666664
      value: {fileID: 21300000, guid: 76a96a1a351a65740bc114740f21b189, type: 3}
    - time: 1
      value: {fileID: 21300000, guid: e3e1c31ff0b02fd49bdff4b4e71a4f02, type: 3}
    - time: 1.0333333
      value: {fileID: 21300000, guid: aac65c3071d9f9942b5d50d009651cf1, type: 3}
    - time: 1.0666667
      value: {fileID: 21300000, guid: f7d99d4c3f9f76c4c86af24840e89aab, type: 3}
    - time: 1.1
      value: {fileID: 21300000, guid: 69824f20ee3d8134ea674abac40ec6bb, type: 3}
    - time: 1.1333333
      value: {fileID: 21300000, guid: acf3e1cc9d923a34ebe4d0e39f07bc7e, type: 3}
    - time: 1.1666666
      value: {fileID: 21300000, guid: 683748802c25b7c4493f15982f120e78, type: 3}
    - time: 1.2
      value: {fileID: 21300000, guid: 2e69d9088850d634f89e214e7309d627, type: 3}
    - time: 1.2333333
      value: {fileID: 21300000, guid: fe6eeb34bee402d40b80ea7fc279a7e6, type: 3}
    - time: 1.2666667
      value: {fileID: 21300000, guid: 549cb3cdcbfbc2644878331f0f826a61, type: 3}
    - time: 1.3
      value: {fileID: 21300000, guid: 1f52401e1e11e914ca0dacc175805bd8, type: 3}
    - time: 1.3333334
      value: {fileID: 21300000, guid: be3b6255575be0440a9f1f54a19bf44e, type: 3}
    - time: 1.3666667
      value: {fileID: 21300000, guid: 755d68212a24a9f40a4963de7dfeb8ac, type: 3}
    - time: 1.4
      value: {fileID: 21300000, guid: 888685fe82e3cab478dc1c0501386596, type: 3}
    - time: 1.4333333
      value: {fileID: 21300000, guid: bcc0520d9e9dd9f43bd4c25ec96519c7, type: 3}
    - time: 1.4666667
      value: {fileID: 21300000, guid: 1b24a923f969717429c5361859df85f4, type: 3}
    - time: 1.5
      value: {fileID: 21300000, guid: cd44b84acc1cb2a43a8ed4948328156f, type: 3}
    - time: 1.5333333
      value: {fileID: 21300000, guid: 89bdc9d87a57cfd4093b4a5ecb73a4ea, type: 3}
    - time: 1.5666667
      value: {fileID: 21300000, guid: d81ac72586c5d9a4c95c5ca9141f69f9, type: 3}
    - time: 1.6
      value: {fileID: 21300000, guid: 51c46aae269fe354598f167f193c6eb3, type: 3}
    - time: 1.6333333
      value: {fileID: 21300000, guid: 4b527ed07e0f93e40a7bc55be42553a1, type: 3}
    - time: 1.6666666
      value: {fileID: 21300000, guid: 69410f82184861a449fe0aa7ac984e45, type: 3}
    - time: 1.7
      value: {fileID: 21300000, guid: 4cad87f825e00b94c98a0773b214bf7b, type: 3}
    - time: 1.7333333
      value: {fileID: 21300000, guid: 969998aef64e39a458572c5fe326c4b5, type: 3}
    - time: 1.7666667
      value: {fileID: 21300000, guid: b4aa51a885153d8428c1aafd2aac0365, type: 3}
    - time: 1.8
      value: {fileID: 21300000, guid: 8b1dc7e11812a634f9cebae4582d1e86, type: 3}
    - time: 1.8333334
      value: {fileID: 21300000, guid: d1d416732c0cad34e8f0fa03e3f801ac, type: 3}
    - time: 1.8666667
      value: {fileID: 21300000, guid: b030c9ea44c94134fb386e5736451314, type: 3}
    - time: 1.9
      value: {fileID: 21300000, guid: 4e175cac78f7faf439094f3109f611b7, type: 3}
    - time: 1.9333333
      value: {fileID: 21300000, guid: ee5834d4a0643df49b0e4d94111f8d67, type: 3}
    - time: 1.9666667
      value: {fileID: 21300000, guid: 09801c3a9ca5b054d9feafcb4aafab4c, type: 3}
    - time: 2
      value: {fileID: 21300000, guid: beb13b74bb4643f4ba0d27c0f06b1317, type: 3}
    - time: 2.0333333
      value: {fileID: 21300000, guid: dab405e3628234c46aee762442fa110c, type: 3}
    - time: 2.0666666
      value: {fileID: 21300000, guid: 385f4db5e0325bc439f2428dafa9066c, type: 3}
    - time: 2.1
      value: {fileID: 21300000, guid: 9e920a737680d2640aeb6498f7d6d76d, type: 3}
    - time: 2.1333334
      value: {fileID: 21300000, guid: f52fbefd158bf1a43864746722b0f4fd, type: 3}
    - time: 2.1666667
      value: {fileID: 21300000, guid: 05d6b51de48f3584792f98eb5872eed9, type: 3}
    - time: 2.2
      value: {fileID: 21300000, guid: 234b193452f406b47a98ebaaa5a20d96, type: 3}
    - time: 2.2333333
      value: {fileID: 21300000, guid: 65f7681c7681d714eb21fb8be667d9f7, type: 3}
    - time: 2.2666667
      value: {fileID: 21300000, guid: e5ee48b0a6fe31b45afa5fe872e0c792, type: 3}
    - time: 2.3
      value: {fileID: 21300000, guid: a0fd1008ccc40074584a2280cf4b301e, type: 3}
    - time: 2.3333333
      value: {fileID: 21300000, guid: d8d588b83f89da6419570401a55685a6, type: 3}
    - time: 2.3666666
      value: {fileID: 21300000, guid: db763ec02eea3774ea9a4cb3dceecc91, type: 3}
    - time: 2.4
      value: {fileID: 21300000, guid: d3306316fd376c24391ad355376065ef, type: 3}
    - time: 2.4333334
      value: {fileID: 21300000, guid: 6dfd849ffe4dde147ae12eb2cec56a36, type: 3}
    - time: 2.4666667
      value: {fileID: 21300000, guid: 576eab5cddfe2fa42bb334d94793aa5c, type: 3}
    - time: 2.5
      value: {fileID: 21300000, guid: a0a47327a95f25f44afcd4ebf02368d0, type: 3}
    - time: 2.5333333
      value: {fileID: 21300000, guid: 96e6a192c427e4b45ba26a96473a4d4f, type: 3}
    - time: 2.5666666
      value: {fileID: 21300000, guid: 30210b931034f674a85ce5f7f32ffc32, type: 3}
    - time: 2.6
      value: {fileID: 21300000, guid: d9fc26e3752b5834191923aaaad235a7, type: 3}
    - time: 2.6333334
      value: {fileID: 21300000, guid: afb19a31e9cf9444b9b4d197a10c216c, type: 3}
    - time: 2.6666667
      value: {fileID: 21300000, guid: e79f1d5de9328c046a4a67e9bc9cae06, type: 3}
    - time: 2.7
      value: {fileID: 21300000, guid: e95d0de218f19044ab7190b1bc934661, type: 3}
    - time: 2.7333333
      value: {fileID: 21300000, guid: 15d6613e650b9ed479a120ea6d142b9e, type: 3}
    - time: 2.7666667
      value: {fileID: 21300000, guid: e8f5f88416342cd4785146387eb7aeb6, type: 3}
    - time: 2.8
      value: {fileID: 21300000, guid: 1e55a10f3afcf57469c791d7ef40e03a, type: 3}
    - time: 2.8333333
      value: {fileID: 21300000, guid: ee9890f115e7e9646aa440120fa720f5, type: 3}
    - time: 2.8666666
      value: {fileID: 21300000, guid: 4c3cc97d47d086743b16d46b9f938a8c, type: 3}
    - time: 2.9
      value: {fileID: 21300000, guid: da1db6d9bdf90364396ce0a1127471e3, type: 3}
    - time: 2.9333334
      value: {fileID: 21300000, guid: 76c0518ce7dd3074180fca51575834dc, type: 3}
    - time: 2.9666667
      value: {fileID: 21300000, guid: 66048c2b50b152741ad30f3556225680, type: 3}
    - time: 3
      value: {fileID: 21300000, guid: 70a4894a6d49e064aa412de5f960db75, type: 3}
    attribute: m_Sprite
    path: 
    classID: 212
    script: {fileID: 0}
  m_SampleRate: 30
  m_WrapMode: 0
  m_Bounds:
    m_Center: {x: 0, y: 0, z: 0}
    m_Extent: {x: 0, y: 0, z: 0}
  m_ClipBindingConstant:
    genericBindings:
    - path: 0
      attribute: 0
      script: {fileID: 0}
      classID: 212
      customType: 23
      isPPtrCurve: 1
    pptrCurveMapping:
    - {fileID: 21300000, guid: 838ba7a83e863f249952b0ed2e091430, type: 3}
    - {fileID: 21300000, guid: d586fa21cdc73bf419ec07129512a898, type: 3}
    - {fileID: 21300000, guid: 41c69d2fe2b36d54b92cacf8afba75d6, type: 3}
    - {fileID: 21300000, guid: 824bf147442cdba45ba90c8facb369f7, type: 3}
    - {fileID: 21300000, guid: 6bde0078d32be9641b50aa2af1492478, type: 3}
    - {fileID: 21300000, guid: 95cc91b805144e14b98b7befff1a672c, type: 3}
    - {fileID: 21300000, guid: 0664b2caab4878f4dae2b01c75a48357, type: 3}
    - {fileID: 21300000, guid: 9726384358707104a84f936368547ac6, type: 3}
    - {fileID: 21300000, guid: 9931a088b4b27ba418ea05f20da2278f, type: 3}
    - {fileID: 21300000, guid: 5f4eb1ce8b3f8aa40bc23acab2905387, type: 3}
    - {fileID: 21300000, guid: b26ffb468f746cf4c8350bf728902366, type: 3}
    - {fileID: 21300000, guid: d85984c86eeb0414a8667d4b9f32dc47, type: 3}
    - {fileID: 21300000, guid: 3143359993721d640b5fd05401ed6764, type: 3}
    - {fileID: 21300000, guid: 25bec02aa0f9bb543b624e4245a5e77c, type: 3}
    - {fileID: 21300000, guid: 673557712aa7a0445a1433874d7bc156, type: 3}
    - {fileID: 21300000, guid: 3c740d3b1bdd7824fbbc804510f4b084, type: 3}
    - {fileID: 21300000, guid: 460db873101c34f4d9a820d2a464e93a, type: 3}
    - {fileID: 21300000, guid: db69d96fc92327a42a527d65a17688a8, type: 3}
    - {fileID: 21300000, guid: dab8da8cb8718494f9de73c3baf3acac, type: 3}
    - {fileID: 21300000, guid: 0855e9ecc8e55f843be90fed5a7a10c1, type: 3}
    - {fileID: 21300000, guid: 2a5aa9869eb7f3b4aafa08e6a5268afe, type: 3}
    - {fileID: 21300000, guid: 4dafb7428090d6044b3daf592f7e2c0f, type: 3}
    - {fileID: 21300000, guid: 5b4cacba7ac867c408640a4a2c01051f, type: 3}
    - {fileID: 21300000, guid: ee21c4a5e13c51b428592d081a19adce, type: 3}
    - {fileID: 21300000, guid: 86aec2ae102e75b4f85d4d23816f05c6, type: 3}
    - {fileID: 21300000, guid: 4cfc708ed399b044fb52c59c39560a12, type: 3}
    - {fileID: 21300000, guid: 47910be132fc4ad43bc08021b4bfdf04, type: 3}
    - {fileID: 21300000, guid: 1964f4cbe0165b14695d906ebb472ced, type: 3}
    - {fileID: 21300000, guid: fb0403ac146d5ec45992540e3607c640, type: 3}
    - {fileID: 21300000, guid: 76a96a1a351a65740bc114740f21b189, type: 3}
    - {fileID: 21300000, guid: e3e1c31ff0b02fd49bdff4b4e71a4f02, type: 3}
    - {fileID: 21300000, guid: aac65c3071d9f9942b5d50d009651cf1, type: 3}
    - {fileID: 21300000, guid: f7d99d4c3f9f76c4c86af24840e89aab, type: 3}
    - {fileID: 21300000, guid: 69824f20ee3d8134ea674abac40ec6bb, type: 3}
    - {fileID: 21300000, guid: acf3e1cc9d923a34ebe4d0e39f07bc7e, type: 3}
    - {fileID: 21300000, guid: 683748802c25b7c4493f15982f120e78, type: 3}
    - {fileID: 21300000, guid: 2e69d9088850d634f89e214e7309d627, type: 3}
    - {fileID: 21300000, guid: fe6eeb34bee402d40b80ea7fc279a7e6, type: 3}
    - {fileID: 21300000, guid: 549cb3cdcbfbc2644878331f0f826a61, type: 3}
    - {fileID: 21300000, guid: 1f52401e1e11e914ca0dacc175805bd8, type: 3}
    - {fileID: 21300000, guid: be3b6255575be0440a9f1f54a19bf44e, type: 3}
    - {fileID: 21300000, guid: 755d68212a24a9f40a4963de7dfeb8ac, type: 3}
    - {fileID: 21300000, guid: 888685fe82e3cab478dc1c0501386596, type: 3}
    - {fileID: 21300000, guid: bcc0520d9e9dd9f43bd4c25ec96519c7, type: 3}
    - {fileID: 21300000, guid: 1b24a923f969717429c5361859df85f4, type: 3}
    - {fileID: 21300000, guid: cd44b84acc1cb2a43a8ed4948328156f, type: 3}
    - {fileID: 21300000, guid: 89bdc9d87a57cfd4093b4a5ecb73a4ea, type: 3}
    - {fileID: 21300000, guid: d81ac72586c5d9a4c95c5ca9141f69f9, type: 3}
    - {fileID: 21300000, guid: 51c46aae269fe354598f167f193c6eb3, type: 3}
    - {fileID: 21300000, guid: 4b527ed07e0f93e40a7bc55be42553a1, type: 3}
    - {fileID: 21300000, guid: 69410f82184861a449fe0aa7ac984e45, type: 3}
    - {fileID: 21300000, guid: 4cad87f825e00b94c98a0773b214bf7b, type: 3}
    - {fileID: 21300000, guid: 969998aef64e39a458572c5fe326c4b5, type: 3}
    - {fileID: 21300000, guid: b4aa51a885153d8428c1aafd2aac0365, type: 3}
    - {fileID: 21300000, guid: 8b1dc7e11812a634f9cebae4582d1e86, type: 3}
    - {fileID: 21300000, guid: d1d416732c0cad34e8f0fa03e3f801ac, type: 3}
    - {fileID: 21300000, guid: b030c9ea44c94134fb386e5736451314, type: 3}
    - {fileID: 21300000, guid: 4e175cac78f7faf439094f3109f611b7, type: 3}
    - {fileID: 21300000, guid: ee5834d4a0643df49b0e4d94111f8d67, type: 3}
    - {fileID: 21300000, guid: 09801c3a9ca5b054d9feafcb4aafab4c, type: 3}
    - {fileID: 21300000, guid: beb13b74bb4643f4ba0d27c0f06b1317, type: 3}
    - {fileID: 21300000, guid: dab405e3628234c46aee762442fa110c, type: 3}
    - {fileID: 21300000, guid: 385f4db5e0325bc439f2428dafa9066c, type: 3}
    - {fileID: 21300000, guid: 9e920a737680d2640aeb6498f7d6d76d, type: 3}
    - {fileID: 21300000, guid: f52fbefd158bf1a43864746722b0f4fd, type: 3}
    - {fileID: 21300000, guid: 05d6b51de48f3584792f98eb5872eed9, type: 3}
    - {fileID: 21300000, guid: 234b193452f406b47a98ebaaa5a20d96, type: 3}
    - {fileID: 21300000, guid: 65f7681c7681d714eb21fb8be667d9f7, type: 3}
    - {fileID: 21300000, guid: e5ee48b0a6fe31b45afa5fe872e0c792, type: 3}
    - {fileID: 21300000, guid: a0fd1008ccc40074584a2280cf4b301e, type: 3}
    - {fileID: 21300000, guid: d8d588b83f89da6419570401a55685a6, type: 3}
    - {fileID: 21300000, guid: db763ec02eea3774ea9a4cb3dceecc91, type: 3}
    - {fileID: 21300000, guid: d3306316fd376c24391ad355376065ef, type: 3}
    - {fileID: 21300000, guid: 6dfd849ffe4dde147ae12eb2cec56a36, type: 3}
    - {fileID: 21300000, guid: 576eab5cddfe2fa42bb334d94793aa5c, type: 3}
    - {fileID: 21300000, guid: a0a47327a95f25f44afcd4ebf02368d0, type: 3}
    - {fileID: 21300000, guid: 96e6a192c427e4b45ba26a96473a4d4f, type: 3}
    - {fileID: 21300000, guid: 30210b931034f674a85ce5f7f32ffc32, type: 3}
    - {fileID: 21300000, guid: d9fc26e3752b5834191923aaaad235a7, type: 3}
    - {fileID: 21300000, guid: afb19a31e9cf9444b9b4d197a10c216c, type: 3}
    - {fileID: 21300000, guid: e79f1d5de9328c046a4a67e9bc9cae06, type: 3}
    - {fileID: 21300000, guid: e95d0de218f19044ab7190b1bc934661, type: 3}
    - {fileID: 21300000, guid: 15d6613e650b9ed479a120ea6d142b9e, type: 3}
    - {fileID: 21300000, guid: e8f5f88416342cd4785146387eb7aeb6, type: 3}
    - {fileID: 21300000, guid: 1e55a10f3afcf57469c791d7ef40e03a, type: 3}
    - {fileID: 21300000, guid: ee9890f115e7e9646aa440120fa720f5, type: 3}
    - {fileID: 21300000, guid: 4c3cc97d47d086743b16d46b9f938a8c, type: 3}
    - {fileID: 21300000, guid: da1db6d9bdf90364396ce0a1127471e3, type: 3}
    - {fileID: 21300000, guid: 76c0518ce7dd3074180fca51575834dc, type: 3}
    - {fileID: 21300000, guid: 66048c2b50b152741ad30f3556225680, type: 3}
    - {fileID: 21300000, guid: 70a4894a6d49e064aa412de5f960db75, type: 3}
  m_AnimationClipSettings:
    serializedVersion: 2
    m_AdditiveReferencePoseClip: {fileID: 0}
    m_AdditiveReferencePoseTime: 0
    m_StartTime: 0
    m_StopTime: 3.0333333
    m_OrientationOffsetY: 0
    m_Level: 0
    m_CycleOffset: 0
    m_HasAdditiveReferencePose: 0
    m_LoopTime: 0
    m_LoopBlend: 0
    m_LoopBlendOrientation: 0
    m_LoopBlendPositionY: 0
    m_LoopBlendPositionXZ: 0
    m_KeepOriginalOrientation: 0
    m_KeepOriginalPositionY: 1
    m_KeepOriginalPositionXZ: 0
    m_HeightFromFeet: 0
    m_Mirror: 0
  m_EditorCurves: []
  m_EulerEditorCurves: []
  m_HasGenericRootTransform: 0
  m_HasMotionFloatCurves: 0
  m_GenerateMotionCurves: 0
  m_IsEmpty: 0
  m_Events: []
