%YAML 1.1
%TAG !u! tag:unity3d.com,2011:
--- !u!21 &2100000
Material:
  serializedVersion: 6
  m_ObjectHideFlags: 0
  m_PrefabParentObject: {fileID: 0}
  m_PrefabInternal: {fileID: 0}
  m_Name: ring_shadow
  m_Shader: {fileID: 10753, guid: 0000000000000000f000000000000000, type: 0}
  m_ShaderKeywords: _ALPHAPREMULTIPLY_ON _EMISSION _USEMAINTEX_ON
  m_LightmapFlags: 0
  m_CustomRenderQueue: 3000
  stringTagMap:
    RenderType: Transparent
  m_SavedProperties:
    serializedVersion: 2
    m_TexEnvs:
    - first:
        name: _BumpMap
      second:
        m_Texture: {fileID: 0}
        m_Scale: {x: 1, y: 1}
        m_Offset: {x: 0, y: 0}
    - first:
        name: _DetailAlbedoMap
      second:
        m_Texture: {fileID: 0}
        m_Scale: {x: 1, y: 1}
        m_Offset: {x: 0, y: 0}
    - first:
        name: _DetailMask
      second:
        m_Texture: {fileID: 0}
        m_Scale: {x: 1, y: 1}
        m_Offset: {x: 0, y: 0}
    - first:
        name: _DetailNormalMap
      second:
        m_Texture: {fileID: 0}
        m_Scale: {x: 1, y: 1}
        m_Offset: {x: 0, y: 0}
    - first:
        name: _DetailTex
      second:
        m_Texture: {fileID: 2800000, guid: 4477f0b087885274081d2f64b7dd9907, type: 3}
        m_Scale: {x: 1, y: 1}
        m_Offset: {x: 0, y: 0}
    - first:
        name: _EmissionMap
      second:
        m_Texture: {fileID: 0}
        m_Scale: {x: 1, y: 1}
        m_Offset: {x: 0, y: 0}
    - first:
        name: _EmissionTex
      second:
        m_Texture: {fileID: 0}
        m_Scale: {x: 1, y: 1}
        m_Offset: {x: 0, y: 0}
    - first:
        name: _MainTex
      second:
        m_Texture: {fileID: 0}
        m_Scale: {x: 1, y: 1}
        m_Offset: {x: 0, y: 0}
    - first:
        name: _MetallicGlossMap
      second:
        m_Texture: {fileID: 0}
        m_Scale: {x: 1, y: 1}
        m_Offset: {x: 0, y: 0}
    - first:
        name: _OcclusionMap
      second:
        m_Texture: {fileID: 0}
        m_Scale: {x: 1, y: 1}
        m_Offset: {x: 0, y: 0}
    - first:
        name: _ParallaxMap
      second:
        m_Texture: {fileID: 0}
        m_Scale: {x: 1, y: 1}
        m_Offset: {x: 0, y: 0}
    m_Floats:
    - first:
        name: PixelSnap
      second: 0
    - first:
        name: _Brightness
      second: 6
    - first:
        name: _BumpScale
      second: 1
    - first:
        name: _ColorMask
      second: 15
    - first:
        name: _ColorWriteMask
      second: 15
    - first:
        name: _Cull
      second: 2
    - first:
        name: _Cutoff
      second: 0.5
    - first:
        name: _DetailNormalMapScale
      second: 1
    - first:
        name: _DstBlend
      second: 10
    - first:
        name: _GlossMapScale
      second: 1
    - first:
        name: _Glossiness
      second: 0.5
    - first:
        name: _GlossyReflections
      second: 1
    - first:
        name: _Metallic
      second: 0
    - first:
        name: _Mode
      second: 3
    - first:
        name: _OcclusionStrength
      second: 1
    - first:
        name: _Opacity
      second: 1
    - first:
        name: _Parallax
      second: 0.02
    - first:
        name: _SmoothnessTextureChannel
      second: 0
    - first:
        name: _SpecularHighlights
      second: 1
    - first:
        name: _SrcBlend
      second: 1
    - first:
        name: _Stencil
      second: 0
    - first:
        name: _StencilComp
      second: 8
    - first:
        name: _StencilOp
      second: 0
    - first:
        name: _StencilReadMask
      second: 255
    - first:
        name: _StencilWriteMask
      second: 255
    - first:
        name: _Strength
      second: 0.2
    - first:
        name: _UVSec
      second: 0
    - first:
        name: _UseBumpMap
      second: 0
    - first:
        name: _UseColor
      second: 0
    - first:
        name: _UseEmissionTex
      second: 0
    - first:
        name: _UseMainTex
      second: 1
    - first:
        name: _UseUIAlphaClip
      second: 0
    - first:
        name: _WireThickness
      second: 100
    - first:
        name: _ZTest
      second: 4
    - first:
        name: _ZWrite
      second: 0
    m_Colors:
    - first:
        name: _BaseColor
      second: {r: 0, g: 0, b: 0, a: 1}
    - first:
        name: _Color
      second: {r: 0.3254902, g: 0.3764706, b: 0.92941177, a: 1}
    - first:
        name: _EmissionColor
      second: {r: 0.3254902, g: 0.3764706, b: 0.92941177, a: 1}
    - first:
        name: _Tint
      second: {r: 0.3254902, g: 0.3764706, b: 0.92941177, a: 1}
    - first:
        name: _WireColor
      second: {r: 1, g: 1, b: 1, a: 1}
